C:\JAVA_KURS\SDA_ZAJECIA\java16wwacalculatorfx\src\main\java\calculator\Main.java
C:\JAVA_KURS\SDA_ZAJECIA\java16wwacalculatorfx\src\main\java\calculator\Dzialania.java
C:\JAVA_KURS\SDA_ZAJECIA\java16wwacalculatorfx\src\main\java\calculator\Controller.java
